{
    "$schema": "http://schema.management.azure.com/schemas/2014-04-01-preview/deploymentTemplate.json#",
    "contentVersion": "1.0.0.0",
    "parameters": {
        "webappname": {
            "type": "string"
        },
        "dockerRegistryUrl": {
            "type": "string"
        },
        "dockerRegistryUsername": {
            "type": "string"
        },
        "dockerRegistryPassword": {
            "type": "string"
        },
        "hostingPlanName": {
            "type": "string"
        },
        "location": {
            "type": "string",
            "defaultValue": "[resourceGroup().location]"
        },
        "hostingEnvironment": {
            "type": "string"
        },
        "serverFarmResourceGroup": {
            "type": "string"
        },
        "subscriptionId": {
            "type": "string"
        },
        "lbIpDnsName": {
            "type": "string",
            "defaultValue": "usa-task3-api-"
        }
    },
    "variables": {
        "lbIpDnsName": "[concat('http://', parameters('lbIpDnsName'), uniqueString(resourceGroup().id), '.northeurope.cloudapp.azure.com')]"
    },
    "resources": [
        {
            "apiVersion": "2016-03-01",
            "name": "[parameters('webappname')]",
            "type": "Microsoft.Web/sites",
            "properties": {
                "name": "[parameters('webappname')]",
                "siteConfig": {
                    "appSettings": [
                        {
                            "name": "WEBSITES_ENABLE_APP_SERVICE_STORAGE",
                            "value": "false"
                        },
                        {
                            "name": "APISERVER",
                            "value": "[variables('lbIpDnsName')]"
                        },
                        {
                            "name": "DOCKER_REGISTRY_SERVER_URL",
                            "value": "[parameters('dockerRegistryUrl')]"
                        },
                        {
                            "name": "DOCKER_REGISTRY_SERVER_USERNAME",
                            "value": "[parameters('dockerRegistryUsername')]"
                        },
                        {
                            "name": "DOCKER_REGISTRY_SERVER_PASSWORD",
                            "value": "[parameters('dockerRegistryPassword')]"
                        }
                    ],
                    "appCommandLine": "",
                    "linuxFxVersion": "DOCKER|usatask2cr.azurecr.io/rating-web:v3"
                },
                "serverFarmId": "[concat('/subscriptions/', parameters('subscriptionId'),'/resourcegroups/', parameters('serverFarmResourceGroup'), '/providers/Microsoft.Web/serverfarms/', parameters('hostingPlanName'))]",
                "hostingEnvironment": "[parameters('hostingEnvironment')]"
            },
            "location": "[parameters('location')]"
        }
    ]
}