{
    "$schema": "http://schema.management.azure.com/schemas/2015-01-01/deploymentTemplate.json#",
    "contentVersion": "1.0.0.0",
    "parameters": {
        "vnetName": {
            "type": "string"
        },
        "addressPrefix": {
            "type": "string"
        },
        "subnetName1": {
            "type": "string"
        },
        "subnetAddressPrefix1": {
            "type": "string"
        },
        "subnetName2": {
            "type": "string"
        },
        "subnetAddressPrefix2": {
            "type": "string"
        },
        "subnetName3": {
            "type": "string"
        },
        "subnetAddressPrefix3": {
            "type": "string"
        },
        "networkSecurityGroupRules": {
            "type": "array"
        },
        "networkSecurityGroupName1": {
            "type": "string"
        },
        "networkSecurityGroupName2": {
            "type": "string"
        }
    },
    "resources": [
        {
            "apiVersion": "2018-08-01",
            "name": "[parameters('vnetName')]",
            "type": "Microsoft.Network/virtualNetworks",
            "location": "[resourceGroup().location]",
            "properties": {
                "addressSpace": {
                    "addressPrefixes": [
                        "[parameters('addressPrefix')]"
                    ]
                },
                "subnets": [
                    {
                        "name": "[parameters('subnetName1')]",
                        "properties": {
                            "addressPrefix": "[parameters('subnetAddressPrefix1')]"
                        }
                    },
                    {
                        "name": "[parameters('subnetName2')]",
                        "properties": {
                            "addressPrefix": "[parameters('subnetAddressPrefix2')]"
                        }
                    },
                    {
                        "name": "[parameters('subnetName3')]",
                        "properties": {
                            "addressPrefix": "[parameters('subnetAddressPrefix3')]"
                        }
                    }
                ],
                "enableDdosProtection": false
            }
        },
        {
            "name": "[parameters('networkSecurityGroupName1')]",
            "type": "Microsoft.Network/networkSecurityGroups",
            "apiVersion": "2018-08-01",
            "location": "[resourceGroup().location]",
            "properties": {
                "securityRules": "[parameters('networkSecurityGroupRules')]"
            }
        },
        {
            "name": "[parameters('networkSecurityGroupName2')]",
            "type": "Microsoft.Network/networkSecurityGroups",
            "apiVersion": "2018-08-01",
            "location": "[resourceGroup().location]",
            "properties": {
                "securityRules": "[parameters('networkSecurityGroupRules')]"
            }
        }

    ]
}